{
    "relationships": [
        {
            "relationshipId": 1,
            "relationshipName": "instGenInfo",
            "otherEntityName": "instGenInfo",
            "relationshipType": "one-to-one",
            "otherEntityField": "code",
            "ownerSide": true
        }
    ],
    "fields": [
        {
            "fieldId": 1,
            "fieldName": "centerCode",
            "fieldType": "String",
            "fieldValidateRules": [
                "required"
            ]
        }
    ],
    "changelogDate": "20160406095014",
    "dto": "no",
    "pagination": "pagination"
}
