{
    "relationships": [
        {
            "relationshipId": 1,
            "relationshipName": "country",
            "otherEntityName": "country",
            "relationshipType": "many-to-one",
            "otherEntityField": "name"
        }
    ],
    "fields": [
        {
            "fieldId": 1,
            "fieldName": "trainId",
            "fieldType": "String"
        },
        {
            "fieldId": 2,
            "fieldName": "tainType",
            "fieldType": "String"
        },
        {
            "fieldId": 3,
            "fieldName": "trainName",
            "fieldType": "String"
        },
        {
            "fieldId": 4,
            "fieldName": "instituteName",
            "fieldType": "String"
        },
        {
            "fieldId": 5,
            "fieldName": "fromDate",
            "fieldType": "LocalDate"
        },
        {
            "fieldId": 6,
            "fieldName": "toDate",
            "fieldType": "LocalDate"
        },       
        {
            "fieldId": 7,
            "fieldName": "remarks",
            "fieldType": "String"
        },        
        {
            "fieldId": 8,
            "fieldName": "createDate",
            "fieldType": "LocalDate"
        },
        {
            "fieldId": 9,
            "fieldName": "createBy",
            "fieldType": "Long"
        },
        {
            "fieldId": 10,
            "fieldName": "updateBy",
            "fieldType": "Long"
        },
        {
            "fieldId": 11,
            "fieldName": "updateDate",
            "fieldType": "LocalDate"
        }
    ],
    "changelogDate": "20171227213025",
    "dto": "no",
    "pagination": "pagination"
}
